%YAML 1.1
%TAG !u! tag:unity3d.com,2011:
--- !u!21 &2100000
Material:
  serializedVersion: 3
  m_ObjectHideFlags: 0
  m_PrefabParentObject: {fileID: 0}
  m_PrefabInternal: {fileID: 0}
  m_Name: LaborInstruments-04
  m_Shader: {fileID: 53, guid: 0000000000000000f000000000000000, type: 0}
  m_ShaderKeywords: []
  m_SavedProperties:
    serializedVersion: 2
    m_TexEnvs:
      data:
        first:
          name: _MainTex
        second:
          m_Texture: {fileID: 2800000, guid: 5e79a2d8480a36b478fcc5765a111580, type: 3}
          m_Scale: {x: 1, y: 1}
          m_Offset: {x: 0, y: 0}
    m_Floats:
      data:
        first:
          name: _Cutoff
        second: .574626863
      data:
        first:
          name: _Shininess
        second: .0724540576
    m_Colors:
      data:
        first:
          name: _Color
        second: {r: .544776082, g: .544776082, b: .544776082, a: 1}
      data:
        first:
          name: _SpecColor
        second: {r: .619403005, g: .619403005, b: .619403005, a: 1}
